Text analysis 📃
…
---

## What is tidy text?

```r
text_df %>%
  unnest_tokens(word, text)
```

```
## # A tibble: 32 x 2
##     line word   
##    <int> <chr>  
##  1     1 take   
##  2     1 me     
##  3     1 out    
##  4     1 tonight
##  5     2 where  
##  6     2 there's
##  7     2 music  
##  8     2 and    
##  9     2 there's
## 10     2 people 
## # … with 22 more rows
```
…
---

## From the "Getting to know you" survey

> "What are your 3 - 5 most favorite songs right now?"

.midi[

```r
listening <- read_csv("data/listening.csv")
listening
```

```
## # A tibble: 104 x 1
##    songs                                                                   
##    <chr>                                                                   
##  1 Gamma Knife - King Gizzard and the Lizard Wizard; Self Immolate - King …
##  2 I dont listen to much music                                             
##  3 Mess by Ed Sheeran, Take me back to london by Ed Sheeran and Sounds of …
##  4 Hate Me (Sometimes) - Stand Atlantic; Edge of Seventeen - Stevie Nicks;…
##  5 whistle, gogobebe, sassy me                                             
##  6 Shofukan, Think twice, Padiddle                                         
##  7 Groundislava - Feel the Heat (Indecorum Remix), Nominal - Everyday Ever…
##  8 Loving you - passion the musical, Senorita - Shawn Mendes and Camilla C…
##  9 lay it down slow - spiritualised, dead boys - Sam Fender, figure it out…
## 10 Don't Stop Me Now (Queen), Finale (Toby Fox), Machine in the Walls (Mud…
## # … with 94 more rows
```
…
---

## Looking for commonalities

.midi[

```r
listening %>%
  unnest_tokens(word, songs) %>%
  count(word, sort = TRUE)
```

```
## # A tibble: 786 x 2
##    word      n
##    <chr> <int>
##  1 the      56
##  2 by       23
##  3 to       20
##  4 and      19
##  5 i        19
##  6 you      15
##  7 of       13
##  8 a        11
##  9 in       11
## 10 me       10
## # … with 776 more rows
```
…
## Stop words

- In computing, stop words are words which are filtered out before or after processing of natural language data (text).
- They usually refer to the most common words in a language, but there is not a single list of stop words used by all natural language processing tools.

---

## English stop words

```r
get_stopwords()
```

```
## # A tibble: 175 x 2
##    word      lexicon 
##    <chr>     <chr>   
##  1 i         snowball
##  2 me        snowball
##  3 my        snowball
##  4 myself    snowball
##  5 we        snowball
##  6 our       snowball
##  7 ours      snowball
##  8 ourselves snowball
##  9 you       snowball
## 10 your      snowball
## # … with 165 more rows
```

---

## Spanish stop words

```r
get_stopwords(language = "es")
```

```
## # A tibble: 308 x 2
##    word  lexicon 
##    <chr> <chr>   
##  1 de    snowball
##  2 la    snowball
##  3 que   snowball
##  4 el    snowball
##  5 en    snowball
##  6 y     snowball
##  7 a     snowball
##  8 los   snowball
##  9 del   snowball
## 10 se    snowball
## # … with 298 more rows
```

---

## Various lexicons

See `?get_stopwords` for more info.

.midi[

```r
get_stopwords(source = "smart")
```

```
## # A tibble: 571 x 2
##    word        lexicon
##    <chr>       <chr>  
##  1 a           smart  
##  2 a's         smart  
##  3 able        smart  
##  4 about       smart  
##  5 above       smart  
##  6 according   smart  
##  7 accordingly smart  
##  8 across      smart  
##  9 actually    smart  
## 10 after       smart  
## # … with 561 more rows
```
…
```r
listening %>%
  unnest_tokens(word, songs) %>%
* anti_join(stop_words) %>%
* filter(!(word %in% c("1", "2", "3", "4", "5"))) %>%
  count(word, sort = TRUE)
```

```
## Joining, by = "word"
```

```
## # A tibble: 640 x 2
##    word        n
##    <chr>   <int>
##  1 ed          7
##  2 queen       7
##  3 sheeran     7
##  4 love        6
##  5 bad         5
##  6 time        5
##  7 1975        4
##  8 dog         4
##  9 king        4
## 10 life        4
## # … with 630 more rows
```
…
```r
top20_songs %>%
  arrange(desc(n))
```

```
## # A tibble: 41 x 2
##    word        n
##    <chr>   <int>
##  1 ed          7
##  2 queen       7
##  3 sheeran     7
##  4 love        6
##  5 bad         5
##  6 time        5
##  7 1975        4
##  8 dog         4
##  9 king        4
## 10 life        4
## # … with 31 more rows
```
…
]

---

## How long are Ed Sheeran's songs?

Length measured by number of lines

```r
sheeran %>%
  count(track_title, sort = TRUE)
```

```
## # A tibble: 73 x 2
##    track_title                                            n
##    <chr>                                              <int>
##  1 Take It Back                                         101
##  2 The Man                                               96
##  3 Cross Me (Ft. Chance the Rapper & PnB Rock)           95
##  4 You Need Me, I Don't Need You                         94
##  5 Shape of You                                          91
##  6 Nina                                                  89
##  7 Remember the Name (Ft. 50 Cent & Eminem)              77
##  8 South of the Border (Ft. Camila Cabello & Cardi B)    77
##  9 Bloodstream                                           76
## 10 Take Me Back to London (Ft. Stormzy)                  75
## # … with 63 more rows
```

---

## Tidy up your lyrics!

```r
sheeran_lyrics <- sheeran %>%
  unnest_tokens(word, lyric)

sheeran_lyrics
```

```
## # A tibble: 30,023 x 6
##    artist    album               track_title           track_n  line word  
##    <chr>     <chr>               <chr>                   <int> <int> <chr> 
##  1 Ed Sheer… No.6 Collaboration… Beautiful People (Ft…       1     1 we    
##  2 Ed Sheer… No.6 Collaboration… Beautiful People (Ft…       1     1 are   
##  3 Ed Sheer… No.6 Collaboration… Beautiful People (Ft…       1     1 we    
##  4 Ed Sheer… No.6 Collaboration… Beautiful People (Ft…       1     1 are   
##  5 Ed Sheer… No.6 Collaboration… Beautiful People (Ft…       1     1 we    
##  6 Ed Sheer… No.6 Collaboration… Beautiful People (Ft…       1     1 are   
##  7 Ed Sheer… No.6 Collaboration… Beautiful People (Ft…       1     2 l.a   
##  8 Ed Sheer… No.6 Collaboration… Beautiful People (Ft…       1     2 on    
##  9 Ed Sheer… No.6 Collaboration… Beautiful People (Ft…       1     2 a     
## 10 Ed Sheer… No.6 Collaboration… Beautiful People (Ft…       1     2 satur…
## # … with 30,013 more rows
```

---

## What are the most common words?

```r
sheeran_lyrics %>%
  count(word, sort = TRUE)
```

```
## # A tibble: 2,830 x 2
##    word      n
##    <chr> <int>
##  1 i      1161
##  2 you    1013
##  3 the     992
##  4 and     886
##  5 my      823
##  6 me      689
##  7 to      556
##  8 in      517
##  9 a       500
## 10 on      408
## # … with 2,820 more rows
```
…
.midi[

```r
sheeran_lyrics %>%
  anti_join(stop_words) %>%
  count(word, sort = TRUE)
```

```
## Joining, by = "word"
```

```
## # A tibble: 2,413 x 2
##    word      n
##    <chr> <int>
##  1 love    363
##  2 baby    130
##  3 yeah    130
##  4 wanna    97
##  5 home     96
##  6 time     95
##  7 heart    76
##  8 ye       75
##  9 feel     72
## 10 eyes     69
## # … with 2,403 more rows
```
…
- One way to analyze the sentiment of a text is to consider the text as a combination of its individual words 
- and the sentiment content of the whole text as the sum of the sentiment content of the individual words

---

## Sentiment lexicons

.pull-left[

```r
get_sentiments("afinn")
```

```
## # A tibble: 2,477 x 2
##    word       value
##    <chr>      <dbl>
##  1 abandon       -2
##  2 abandoned     -2
##  3 abandons      -2
##  4 abducted      -2
##  5 abduction     -2
##  6 abductions    -2
##  7 abhor         -3
##  8 abhorred      -3
##  9 abhorrent     -3
## 10 abhors        -3
## # … with 2,467 more rows
```
]
.pull-right[

```r
get_sentiments("bing") 
```

```
## # A tibble: 6,786 x 2
##    word        sentiment
##    <chr>       <chr>    
##  1 2-faces     negative 
##  2 abnormal    negative 
##  3 abolish     negative 
##  4 abominable  negative 
##  5 abominably  negative 
##  6 abominate   negative 
##  7 abomination negative 
##  8 abort       negative 
##  9 aborted     negative 
## 10 aborts      negative 
## # … with 6,776 more rows
```
]

---

## Sentiment lexicons

.pull-left[

```r
get_sentiments("nrc")
```

```
## # A tibble: 13,901 x 2
##    word        sentiment
##    <chr>       <chr>    
##  1 abacus      trust    
##  2 abandon     fear     
##  3 abandon     negative 
##  4 abandon     sadness  
##  5 abandoned   anger    
##  6 abandoned   fear     
##  7 abandoned   negative 
##  8 abandoned   sadness  
##  9 abandonment anger    
## 10 abandonment fear     
## # … with 13,891 more rows
```
]
.pull-right[

```r
get_sentiments("loughran") 
```

```
## # A tibble: 4,150 x 2
##    word         sentiment
##    <chr>        <chr>    
##  1 abandon      negative 
##  2 abandoned    negative 
##  3 abandoning   negative 
##  4 abandonment  negative 
##  5 abandonments negative 
##  6 abandons     negative 
##  7 abdicated    negative 
##  8 abdicates    negative 
##  9 abdicating   negative 
## 10 abdication   negative 
## # … with 4,140 more rows
```
…
.midi[

```r
sheeran_lyrics %>%
  inner_join(get_sentiments("bing")) %>%
  count(sentiment, word, sort = TRUE)
```

```
## Joining, by = "word"
```

```
## # A tibble: 359 x 3
##    sentiment word          n
##    <chr>     <chr>     <int>
##  1 positive  love        363
##  2 positive  like        202
##  3 positive  right        46
##  4 positive  well         33
##  5 positive  darling      31
##  6 positive  lover        30
##  7 positive  loved        29
##  8 negative  fall         25
##  9 positive  beautiful    23
## 10 negative  cold         22
## # … with 349 more rows
```
…
## Assign a sentiment score

```r
sheeran_lyrics %>%
  anti_join(stop_words) %>%
  left_join(get_sentiments("afinn")) 
```

```
## Joining, by = "word"Joining, by = "word"
```

```
## # A tibble: 9,186 x 7
##    artist   album           track_title        track_n  line word     value
##    <chr>    <chr>           <chr>                <int> <int> <chr>    <dbl>
##  1 Ed Shee… No.6 Collabora… Beautiful People …       1     2 l.a         NA
##  2 Ed Shee… No.6 Collabora… Beautiful People …       1     2 saturday    NA
##  3 Ed Shee… No.6 Collabora… Beautiful People …       1     2 night       NA
##  4 Ed Shee… No.6 Collabora… Beautiful People …       1     2 summer      NA
##  5 Ed Shee… No.6 Collabora… Beautiful People …       1     3 sundown     NA
##  6 Ed Shee… No.6 Collabora… Beautiful People …       1     4 lamborg…    NA
##  7 Ed Shee… No.6 Collabora… Beautiful People …       1     4 rented      NA
##  8 Ed Shee… No.6 Collabora… Beautiful People …       1     4 hummers     NA
##  9 Ed Shee… No.6 Collabora… Beautiful People …       1     5 party's     NA
## 10 Ed Shee… No.6 Collabora… Beautiful People …       1     5 headin      NA
## # … with 9,176 more rows
```
…
