Scientific studies and confounding 😖
…
---

## Berkeley admission data

- Study carried out by the graduate Division of the University of California, Berkeley in the early 70’s to evaluate whether there was a sex bias in graduate admissions.
- The data come from six departments. For confidentiality we'll call them A-F. 
- We have information on whether the applicant was male or female and whether they were admitted or rejected. 
- First, we will evaluate whether the percentage of males admitted is indeed higher than females, overall. Next, we will calculate the same percentage for each department.

---

## Data

```
## # A tibble: 4,526 x 3
##    admit    sex   dept 
##    <chr>    <chr> <chr>
##  1 Admitted Male  A    
##  2 Admitted Male  A    
##  3 Admitted Male  A    
##  4 Admitted Male  A    
##  5 Admitted Male  A    
##  6 Admitted Male  A    
##  7 Admitted Male  A    
##  8 Admitted Male  A    
##  9 Admitted Male  A    
## 10 Admitted Male  A    
## # … with 4,516 more rows
```
…
---

## Sex distribution, by department

.question[
What can you say about the sex distribution by department ?
]

```r
ucb_admit %>%
  count(dept, sex, admit)
```

```
## # A tibble: 24 x 4
##    dept  sex    admit        n
##    <chr> <chr>  <chr>    <int>
##  1 A     Female Admitted    89
##  2 A     Female Rejected    19
##  3 A     Male   Admitted   512
##  4 A     Male   Rejected   313
##  5 B     Female Admitted    17
##  6 B     Female Rejected     8
##  7 B     Male   Admitted   353
##  8 B     Male   Rejected   207
##  9 C     Female Admitted   202
## 10 C     Female Rejected   391
## # … with 14 more rows
```
…
---

## What does group_by() do?

`group_by()` takes an existing `tbl` and converts it into a grouped `tbl` where operations are performed "by group":

.pull-left[

```r
ucb_admit
```

```
## # A tibble: 4,526 x 3
##    admit    sex   dept 
##    <chr>    <chr> <chr>
##  1 Admitted Male  A    
##  2 Admitted Male  A    
##  3 Admitted Male  A    
##  4 Admitted Male  A    
##  5 Admitted Male  A    
##  6 Admitted Male  A    
##  7 Admitted Male  A    
##  8 Admitted Male  A    
##  9 Admitted Male  A    
## 10 Admitted Male  A    
## # … with 4,516 more rows
```
]
.pull-right[

```r
ucb_admit %>% 
  group_by(sex)
```

```
## # A tibble: 4,526 x 3
## # Groups:   sex [2]
##    admit    sex   dept 
##    <chr>    <chr> <chr>
##  1 Admitted Male  A    
##  2 Admitted Male  A    
##  3 Admitted Male  A    
##  4 Admitted Male  A    
##  5 Admitted Male  A    
##  6 Admitted Male  A    
##  7 Admitted Male  A    
##  8 Admitted Male  A    
##  9 Admitted Male  A    
## 10 Admitted Male  A    
## # … with 4,516 more rows
```
…
---

## What does group_by() not do?

`group_by()` does not sort the data, `arrange()` does:

.pull-left[

```r
ucb_admit %>% 
  group_by(sex)
```

```
## # A tibble: 4,526 x 3
## # Groups:   sex [2]
##    admit    sex   dept 
##    <chr>    <chr> <chr>
##  1 Admitted Male  A    
##  2 Admitted Male  A    
##  3 Admitted Male  A    
##  4 Admitted Male  A    
##  5 Admitted Male  A    
##  6 Admitted Male  A    
##  7 Admitted Male  A    
##  8 Admitted Male  A    
##  9 Admitted Male  A    
## 10 Admitted Male  A    
## # … with 4,516 more rows
```
]
.pull-right[

```r
ucb_admit %>% 
  arrange(sex)
```

```
## # A tibble: 4,526 x 3
##    admit    sex    dept 
##    <chr>    <chr>  <chr>
##  1 Admitted Female A    
##  2 Admitted Female A    
##  3 Admitted Female A    
##  4 Admitted Female A    
##  5 Admitted Female A    
##  6 Admitted Female A    
##  7 Admitted Female A    
##  8 Admitted Female A    
##  9 Admitted Female A    
## 10 Admitted Female A    
## # … with 4,516 more rows
```
…
---

## What does group_by() not do?

`group_by()` does not create frequency tables, `count()` does:

.pull-left[

```r
ucb_admit %>% 
  group_by(sex)
```

```
## # A tibble: 4,526 x 3
## # Groups:   sex [2]
##    admit    sex   dept 
##    <chr>    <chr> <chr>
##  1 Admitted Male  A    
##  2 Admitted Male  A    
##  3 Admitted Male  A    
##  4 Admitted Male  A    
##  5 Admitted Male  A    
##  6 Admitted Male  A    
##  7 Admitted Male  A    
##  8 Admitted Male  A    
##  9 Admitted Male  A    
## 10 Admitted Male  A    
## # … with 4,516 more rows
```
…
